{
    "m_SGVersion": 3,
    "m_Type": "UnityEditor.ShaderGraph.GraphData",
    "m_ObjectId": "6eb022723d1e4b30bd23763372dbe21a",
    "m_Properties": [
        {
            "m_Id": "d55b223800e14b0c8caf41a621cea745"
        },
        {
            "m_Id": "6ba81cb8f880415088133efbb43e377e"
        }
    ],
    "m_Keywords": [],
    "m_Dropdowns": [],
    "m_CategoryData": [
        {
            "m_Id": "bb3e2ce3d9b647c69914fa6a817c4d6d"
        }
    ],
    "m_Nodes": [
        {
            "m_Id": "86e4700248aa4f4dbeaf192328dd10ae"
        },
        {
            "m_Id": "31141ea1cd5f4ff9a90e1dc99833bae0"
        },
        {
            "m_Id": "d5455684a53849c6a5f98728b4b9dda8"
        },
        {
            "m_Id": "c76f984816124a629ec7d058f11811ea"
        },
        {
            "m_Id": "493c767f9208443daec2098eaea9957d"
        },
        {
            "m_Id": "a452105788c6400889bf318551d4703b"
        },
        {
            "m_Id": "4a74f4195a2c4f9f931be7bbd8e837b6"
        },
        {
            "m_Id": "2865ed61aeac457886436e249b56ef5e"
        },
        {
            "m_Id": "180ac08be615452d80bcb4920e29cf7d"
        }
    ],
    "m_GroupDatas": [],
    "m_StickyNoteDatas": [],
    "m_Edges": [
        {
            "m_OutputSlot": {
                "m_Node": {
                    "m_Id": "180ac08be615452d80bcb4920e29cf7d"
                },
                "m_SlotId": 0
            },
            "m_InputSlot": {
                "m_Node": {
                    "m_Id": "c76f984816124a629ec7d058f11811ea"
                },
                "m_SlotId": 0
            }
        },
        {
            "m_OutputSlot": {
                "m_Node": {
                    "m_Id": "2865ed61aeac457886436e249b56ef5e"
                },
                "m_SlotId": 0
            },
            "m_InputSlot": {
                "m_Node": {
                    "m_Id": "4a74f4195a2c4f9f931be7bbd8e837b6"
                },
                "m_SlotId": 0
            }
        },
        {
            "m_OutputSlot": {
                "m_Node": {
                    "m_Id": "4a74f4195a2c4f9f931be7bbd8e837b6"
                },
                "m_SlotId": 2
            },
            "m_InputSlot": {
                "m_Node": {
                    "m_Id": "86e4700248aa4f4dbeaf192328dd10ae"
                },
                "m_SlotId": 0
            }
        },
        {
            "m_OutputSlot": {
                "m_Node": {
                    "m_Id": "a452105788c6400889bf318551d4703b"
                },
                "m_SlotId": 0
            },
            "m_InputSlot": {
                "m_Node": {
                    "m_Id": "4a74f4195a2c4f9f931be7bbd8e837b6"
                },
                "m_SlotId": 1
            }
        }
    ],
    "m_VertexContext": {
        "m_Position": {
            "x": 0.0,
            "y": 0.0
        },
        "m_Blocks": [
            {
                "m_Id": "86e4700248aa4f4dbeaf192328dd10ae"
            },
            {
                "m_Id": "31141ea1cd5f4ff9a90e1dc99833bae0"
            },
            {
                "m_Id": "d5455684a53849c6a5f98728b4b9dda8"
            }
        ]
    },
    "m_FragmentContext": {
        "m_Position": {
            "x": 0.0,
            "y": 200.0
        },
        "m_Blocks": [
            {
                "m_Id": "c76f984816124a629ec7d058f11811ea"
            },
            {
                "m_Id": "493c767f9208443daec2098eaea9957d"
            }
        ]
    },
    "m_PreviewData": {
        "serializedMesh": {
            "m_SerializedMesh": "{\"mesh\":{\"instanceID\":0}}",
            "m_Guid": ""
        },
        "preventRotation": false
    },
    "m_Path": "Shader Graphs",
    "m_GraphPrecision": 1,
    "m_PreviewMode": 2,
    "m_OutputNode": {
        "m_Id": ""
    },
    "m_SubDatas": [],
    "m_ActiveTargets": [
        {
            "m_Id": "7ed043ccb8b64d4888456b252723090b"
        }
    ]
}

{
    "m_SGVersion": 0,
    "m_Type": "UnityEditor.ShaderGraph.PropertyNode",
    "m_ObjectId": "180ac08be615452d80bcb4920e29cf7d",
    "m_Group": {
        "m_Id": ""
    },
    "m_Name": "Property",
    "m_DrawState": {
        "m_Expanded": true,
        "m_Position": {
            "serializedVersion": "2",
            "x": -115.0,
            "y": 238.0,
            "width": 105.0,
            "height": 34.0
        }
    },
    "m_Slots": [
        {
            "m_Id": "972ac1d6aad14bb2a83e4aa8ced1d4ab"
        }
    ],
    "synonyms": [],
    "m_Precision": 0,
    "m_PreviewExpanded": true,
    "m_DismissedVersion": 0,
    "m_PreviewMode": 0,
    "m_CustomColors": {
        "m_SerializableColors": []
    },
    "m_Property": {
        "m_Id": "6ba81cb8f880415088133efbb43e377e"
    }
}

{
    "m_SGVersion": 0,
    "m_Type": "UnityEditor.ShaderGraph.DynamicValueMaterialSlot",
    "m_ObjectId": "1b6fa1b631b141eebbb6fc5a1b735304",
    "m_Id": 1,
    "m_DisplayName": "B",
    "m_SlotType": 0,
    "m_Hidden": false,
    "m_ShaderOutputName": "B",
    "m_StageCapability": 3,
    "m_Value": {
        "e00": 2.0,
        "e01": 2.0,
        "e02": 2.0,
        "e03": 2.0,
        "e10": 2.0,
        "e11": 2.0,
        "e12": 2.0,
        "e13": 2.0,
        "e20": 2.0,
        "e21": 2.0,
        "e22": 2.0,
        "e23": 2.0,
        "e30": 2.0,
        "e31": 2.0,
        "e32": 2.0,
        "e33": 2.0
    },
    "m_DefaultValue": {
        "e00": 1.0,
        "e01": 0.0,
        "e02": 0.0,
        "e03": 0.0,
        "e10": 0.0,
        "e11": 1.0,
        "e12": 0.0,
        "e13": 0.0,
        "e20": 0.0,
        "e21": 0.0,
        "e22": 1.0,
        "e23": 0.0,
        "e30": 0.0,
        "e31": 0.0,
        "e32": 0.0,
        "e33": 1.0
    }
}

{
    "m_SGVersion": 0,
    "m_Type": "UnityEditor.ShaderGraph.DynamicValueMaterialSlot",
    "m_ObjectId": "1b947a8294054f819685057e4ccea600",
    "m_Id": 2,
    "m_DisplayName": "Out",
    "m_SlotType": 1,
    "m_Hidden": false,
    "m_ShaderOutputName": "Out",
    "m_StageCapability": 3,
    "m_Value": {
        "e00": 0.0,
        "e01": 0.0,
        "e02": 0.0,
        "e03": 0.0,
        "e10": 0.0,
        "e11": 0.0,
        "e12": 0.0,
        "e13": 0.0,
        "e20": 0.0,
        "e21": 0.0,
        "e22": 0.0,
        "e23": 0.0,
        "e30": 0.0,
        "e31": 0.0,
        "e32": 0.0,
        "e33": 0.0
    },
    "m_DefaultValue": {
        "e00": 1.0,
        "e01": 0.0,
        "e02": 0.0,
        "e03": 0.0,
        "e10": 0.0,
        "e11": 1.0,
        "e12": 0.0,
        "e13": 0.0,
        "e20": 0.0,
        "e21": 0.0,
        "e22": 1.0,
        "e23": 0.0,
        "e30": 0.0,
        "e31": 0.0,
        "e32": 0.0,
        "e33": 1.0
    }
}

{
    "m_SGVersion": 0,
    "m_Type": "UnityEditor.ShaderGraph.Vector1MaterialSlot",
    "m_ObjectId": "1dadec4968c84c50823cb05beafd6f42",
    "m_Id": 0,
    "m_DisplayName": "Alpha",
    "m_SlotType": 0,
    "m_Hidden": false,
    "m_ShaderOutputName": "Alpha",
    "m_StageCapability": 2,
    "m_Value": 1.0,
    "m_DefaultValue": 1.0,
    "m_Labels": []
}

{
    "m_SGVersion": 0,
    "m_Type": "UnityEditor.ShaderGraph.PositionMaterialSlot",
    "m_ObjectId": "22af371944b44739b597f45058308796",
    "m_Id": 0,
    "m_DisplayName": "Position",
    "m_SlotType": 0,
    "m_Hidden": false,
    "m_ShaderOutputName": "Position",
    "m_StageCapability": 1,
    "m_Value": {
        "x": 0.0,
        "y": 0.0,
        "z": 0.0
    },
    "m_DefaultValue": {
        "x": 0.0,
        "y": 0.0,
        "z": 0.0
    },
    "m_Labels": [],
    "m_Space": 0
}

{
    "m_SGVersion": 0,
    "m_Type": "UnityEditor.ShaderGraph.PropertyNode",
    "m_ObjectId": "2865ed61aeac457886436e249b56ef5e",
    "m_Group": {
        "m_Id": ""
    },
    "m_Name": "Property",
    "m_DrawState": {
        "m_Expanded": true,
        "m_Position": {
            "serializedVersion": "2",
            "x": -373.0,
            "y": 10.0,
            "width": 104.0,
            "height": 34.0
        }
    },
    "m_Slots": [
        {
            "m_Id": "662643f3ae4941e39916cc59914f27f3"
        }
    ],
    "synonyms": [],
    "m_Precision": 0,
    "m_PreviewExpanded": true,
    "m_DismissedVersion": 0,
    "m_PreviewMode": 0,
    "m_CustomColors": {
        "m_SerializableColors": []
    },
    "m_Property": {
        "m_Id": "d55b223800e14b0c8caf41a621cea745"
    }
}

{
    "m_SGVersion": 0,
    "m_Type": "UnityEditor.ShaderGraph.BlockNode",
    "m_ObjectId": "31141ea1cd5f4ff9a90e1dc99833bae0",
    "m_Group": {
        "m_Id": ""
    },
    "m_Name": "VertexDescription.Normal",
    "m_DrawState": {
        "m_Expanded": true,
        "m_Position": {
            "serializedVersion": "2",
            "x": 0.0,
            "y": 0.0,
            "width": 0.0,
            "height": 0.0
        }
    },
    "m_Slots": [
        {
            "m_Id": "b28c43d5461e4b2a8dbc1d1d8a44c760"
        }
    ],
    "synonyms": [],
    "m_Precision": 0,
    "m_PreviewExpanded": true,
    "m_DismissedVersion": 0,
    "m_PreviewMode": 0,
    "m_CustomColors": {
        "m_SerializableColors": []
    },
    "m_SerializedDescriptor": "VertexDescription.Normal"
}

{
    "m_SGVersion": 0,
    "m_Type": "UnityEditor.ShaderGraph.ColorRGBMaterialSlot",
    "m_ObjectId": "3a265d15cb2e44c68ac7e6cb0b9c1443",
    "m_Id": 0,
    "m_DisplayName": "Base Color",
    "m_SlotType": 0,
    "m_Hidden": false,
    "m_ShaderOutputName": "BaseColor",
    "m_StageCapability": 2,
    "m_Value": {
        "x": 0.5,
        "y": 0.5,
        "z": 0.5
    },
    "m_DefaultValue": {
        "x": 0.0,
        "y": 0.0,
        "z": 0.0
    },
    "m_Labels": [],
    "m_ColorMode": 0,
    "m_DefaultColor": {
        "r": 0.5,
        "g": 0.5,
        "b": 0.5,
        "a": 1.0
    }
}

{
    "m_SGVersion": 0,
    "m_Type": "UnityEditor.ShaderGraph.BlockNode",
    "m_ObjectId": "493c767f9208443daec2098eaea9957d",
    "m_Group": {
        "m_Id": ""
    },
    "m_Name": "SurfaceDescription.Alpha",
    "m_DrawState": {
        "m_Expanded": true,
        "m_Position": {
            "serializedVersion": "2",
            "x": 0.0,
            "y": 0.0,
            "width": 0.0,
            "height": 0.0
        }
    },
    "m_Slots": [
        {
            "m_Id": "1dadec4968c84c50823cb05beafd6f42"
        }
    ],
    "synonyms": [],
    "m_Precision": 0,
    "m_PreviewExpanded": true,
    "m_DismissedVersion": 0,
    "m_PreviewMode": 0,
    "m_CustomColors": {
        "m_SerializableColors": []
    },
    "m_SerializedDescriptor": "SurfaceDescription.Alpha"
}

{
    "m_SGVersion": 0,
    "m_Type": "UnityEditor.ShaderGraph.MultiplyNode",
    "m_ObjectId": "4a74f4195a2c4f9f931be7bbd8e837b6",
    "m_Group": {
        "m_Id": ""
    },
    "m_Name": "Multiply",
    "m_DrawState": {
        "m_Expanded": true,
        "m_Position": {
            "serializedVersion": "2",
            "x": -229.0,
            "y": 0.0,
            "width": 130.0,
            "height": 118.0
        }
    },
    "m_Slots": [
        {
            "m_Id": "5453960438de46dabc7fbeb967acae97"
        },
        {
            "m_Id": "1b6fa1b631b141eebbb6fc5a1b735304"
        },
        {
            "m_Id": "1b947a8294054f819685057e4ccea600"
        }
    ],
    "synonyms": [
        "multiplication",
        "times",
        "x"
    ],
    "m_Precision": 0,
    "m_PreviewExpanded": false,
    "m_DismissedVersion": 0,
    "m_PreviewMode": 0,
    "m_CustomColors": {
        "m_SerializableColors": []
    }
}

{
    "m_SGVersion": 0,
    "m_Type": "UnityEditor.ShaderGraph.DynamicValueMaterialSlot",
    "m_ObjectId": "5453960438de46dabc7fbeb967acae97",
    "m_Id": 0,
    "m_DisplayName": "A",
    "m_SlotType": 0,
    "m_Hidden": false,
    "m_ShaderOutputName": "A",
    "m_StageCapability": 3,
    "m_Value": {
        "e00": 0.0,
        "e01": 0.0,
        "e02": 0.0,
        "e03": 0.0,
        "e10": 0.0,
        "e11": 0.0,
        "e12": 0.0,
        "e13": 0.0,
        "e20": 0.0,
        "e21": 0.0,
        "e22": 0.0,
        "e23": 0.0,
        "e30": 0.0,
        "e31": 0.0,
        "e32": 0.0,
        "e33": 0.0
    },
    "m_DefaultValue": {
        "e00": 1.0,
        "e01": 0.0,
        "e02": 0.0,
        "e03": 0.0,
        "e10": 0.0,
        "e11": 1.0,
        "e12": 0.0,
        "e13": 0.0,
        "e20": 0.0,
        "e21": 0.0,
        "e22": 1.0,
        "e23": 0.0,
        "e30": 0.0,
        "e31": 0.0,
        "e32": 0.0,
        "e33": 1.0
    }
}

{
    "m_SGVersion": 0,
    "m_Type": "UnityEditor.ShaderGraph.Vector1MaterialSlot",
    "m_ObjectId": "662643f3ae4941e39916cc59914f27f3",
    "m_Id": 0,
    "m_DisplayName": "Scale",
    "m_SlotType": 1,
    "m_Hidden": false,
    "m_ShaderOutputName": "Out",
    "m_StageCapability": 3,
    "m_Value": 0.0,
    "m_DefaultValue": 0.0,
    "m_Labels": []
}

{
    "m_SGVersion": 3,
    "m_Type": "UnityEditor.ShaderGraph.Internal.ColorShaderProperty",
    "m_ObjectId": "6ba81cb8f880415088133efbb43e377e",
    "m_Guid": {
        "m_GuidSerialized": "5be95775-29e1-4987-a621-f3ae1c15f340"
    },
    "m_Name": "Color",
    "m_DefaultRefNameVersion": 1,
    "m_RefNameGeneratedByDisplayName": "Color",
    "m_DefaultReferenceName": "_Color",
    "m_OverrideReferenceName": "",
    "m_GeneratePropertyBlock": true,
    "m_UseCustomSlotLabel": false,
    "m_CustomSlotLabel": "",
    "m_DismissedVersion": 0,
    "m_Precision": 0,
    "overrideHLSLDeclaration": false,
    "hlslDeclarationOverride": 0,
    "m_Hidden": false,
    "m_Value": {
        "r": 0.0,
        "g": 0.0,
        "b": 0.0,
        "a": 0.0
    },
    "isMainColor": false,
    "m_ColorMode": 1
}

{
    "m_SGVersion": 1,
    "m_Type": "UnityEditor.Rendering.Universal.ShaderGraph.UniversalTarget",
    "m_ObjectId": "7ed043ccb8b64d4888456b252723090b",
    "m_Datas": [],
    "m_ActiveSubTarget": {
        "m_Id": "918e73475a364fe6ad29cfe5d1d9f0b2"
    },
    "m_AllowMaterialOverride": false,
    "m_SurfaceType": 1,
    "m_ZTestMode": 4,
    "m_ZWriteControl": 0,
    "m_AlphaMode": 0,
    "m_RenderFace": 1,
    "m_AlphaClip": false,
    "m_CastShadows": true,
    "m_ReceiveShadows": true,
    "m_SupportsLODCrossFade": false,
    "m_CustomEditorGUI": "",
    "m_SupportVFX": false
}

{
    "m_SGVersion": 0,
    "m_Type": "UnityEditor.ShaderGraph.BlockNode",
    "m_ObjectId": "86e4700248aa4f4dbeaf192328dd10ae",
    "m_Group": {
        "m_Id": ""
    },
    "m_Name": "VertexDescription.Position",
    "m_DrawState": {
        "m_Expanded": true,
        "m_Position": {
            "serializedVersion": "2",
            "x": 0.0,
            "y": 0.0,
            "width": 0.0,
            "height": 0.0
        }
    },
    "m_Slots": [
        {
            "m_Id": "22af371944b44739b597f45058308796"
        }
    ],
    "synonyms": [],
    "m_Precision": 0,
    "m_PreviewExpanded": true,
    "m_DismissedVersion": 0,
    "m_PreviewMode": 0,
    "m_CustomColors": {
        "m_SerializableColors": []
    },
    "m_SerializedDescriptor": "VertexDescription.Position"
}

{
    "m_SGVersion": 2,
    "m_Type": "UnityEditor.Rendering.Universal.ShaderGraph.UniversalUnlitSubTarget",
    "m_ObjectId": "918e73475a364fe6ad29cfe5d1d9f0b2"
}

{
    "m_SGVersion": 0,
    "m_Type": "UnityEditor.ShaderGraph.Vector4MaterialSlot",
    "m_ObjectId": "972ac1d6aad14bb2a83e4aa8ced1d4ab",
    "m_Id": 0,
    "m_DisplayName": "Color",
    "m_SlotType": 1,
    "m_Hidden": false,
    "m_ShaderOutputName": "Out",
    "m_StageCapability": 3,
    "m_Value": {
        "x": 0.0,
        "y": 0.0,
        "z": 0.0,
        "w": 0.0
    },
    "m_DefaultValue": {
        "x": 0.0,
        "y": 0.0,
        "z": 0.0,
        "w": 0.0
    },
    "m_Labels": []
}

{
    "m_SGVersion": 1,
    "m_Type": "UnityEditor.ShaderGraph.PositionNode",
    "m_ObjectId": "a452105788c6400889bf318551d4703b",
    "m_Group": {
        "m_Id": ""
    },
    "m_Name": "Position",
    "m_DrawState": {
        "m_Expanded": true,
        "m_Position": {
            "serializedVersion": "2",
            "x": -477.0,
            "y": 59.0,
            "width": 208.0,
            "height": 315.0
        }
    },
    "m_Slots": [
        {
            "m_Id": "c685ad206e1d4478aeadfa1aa5316b98"
        }
    ],
    "synonyms": [
        "location"
    ],
    "m_Precision": 1,
    "m_PreviewExpanded": true,
    "m_DismissedVersion": 0,
    "m_PreviewMode": 2,
    "m_CustomColors": {
        "m_SerializableColors": []
    },
    "m_Space": 0,
    "m_PositionSource": 0
}

{
    "m_SGVersion": 0,
    "m_Type": "UnityEditor.ShaderGraph.TangentMaterialSlot",
    "m_ObjectId": "a7e8017bc2fa45dd906250c0711cc045",
    "m_Id": 0,
    "m_DisplayName": "Tangent",
    "m_SlotType": 0,
    "m_Hidden": false,
    "m_ShaderOutputName": "Tangent",
    "m_StageCapability": 1,
    "m_Value": {
        "x": 0.0,
        "y": 0.0,
        "z": 0.0
    },
    "m_DefaultValue": {
        "x": 0.0,
        "y": 0.0,
        "z": 0.0
    },
    "m_Labels": [],
    "m_Space": 0
}

{
    "m_SGVersion": 0,
    "m_Type": "UnityEditor.ShaderGraph.NormalMaterialSlot",
    "m_ObjectId": "b28c43d5461e4b2a8dbc1d1d8a44c760",
    "m_Id": 0,
    "m_DisplayName": "Normal",
    "m_SlotType": 0,
    "m_Hidden": false,
    "m_ShaderOutputName": "Normal",
    "m_StageCapability": 1,
    "m_Value": {
        "x": 0.0,
        "y": 0.0,
        "z": 0.0
    },
    "m_DefaultValue": {
        "x": 0.0,
        "y": 0.0,
        "z": 0.0
    },
    "m_Labels": [],
    "m_Space": 0
}

{
    "m_SGVersion": 0,
    "m_Type": "UnityEditor.ShaderGraph.CategoryData",
    "m_ObjectId": "bb3e2ce3d9b647c69914fa6a817c4d6d",
    "m_Name": "",
    "m_ChildObjectList": [
        {
            "m_Id": "d55b223800e14b0c8caf41a621cea745"
        },
        {
            "m_Id": "6ba81cb8f880415088133efbb43e377e"
        }
    ]
}

{
    "m_SGVersion": 0,
    "m_Type": "UnityEditor.ShaderGraph.Vector3MaterialSlot",
    "m_ObjectId": "c685ad206e1d4478aeadfa1aa5316b98",
    "m_Id": 0,
    "m_DisplayName": "Out",
    "m_SlotType": 1,
    "m_Hidden": false,
    "m_ShaderOutputName": "Out",
    "m_StageCapability": 3,
    "m_Value": {
        "x": 0.0,
        "y": 0.0,
        "z": 0.0
    },
    "m_DefaultValue": {
        "x": 0.0,
        "y": 0.0,
        "z": 0.0
    },
    "m_Labels": []
}

{
    "m_SGVersion": 0,
    "m_Type": "UnityEditor.ShaderGraph.BlockNode",
    "m_ObjectId": "c76f984816124a629ec7d058f11811ea",
    "m_Group": {
        "m_Id": ""
    },
    "m_Name": "SurfaceDescription.BaseColor",
    "m_DrawState": {
        "m_Expanded": true,
        "m_Position": {
            "serializedVersion": "2",
            "x": 0.0,
            "y": 0.0,
            "width": 0.0,
            "height": 0.0
        }
    },
    "m_Slots": [
        {
            "m_Id": "3a265d15cb2e44c68ac7e6cb0b9c1443"
        }
    ],
    "synonyms": [],
    "m_Precision": 0,
    "m_PreviewExpanded": true,
    "m_DismissedVersion": 0,
    "m_PreviewMode": 0,
    "m_CustomColors": {
        "m_SerializableColors": []
    },
    "m_SerializedDescriptor": "SurfaceDescription.BaseColor"
}

{
    "m_SGVersion": 0,
    "m_Type": "UnityEditor.ShaderGraph.BlockNode",
    "m_ObjectId": "d5455684a53849c6a5f98728b4b9dda8",
    "m_Group": {
        "m_Id": ""
    },
    "m_Name": "VertexDescription.Tangent",
    "m_DrawState": {
        "m_Expanded": true,
        "m_Position": {
            "serializedVersion": "2",
            "x": 0.0,
            "y": 0.0,
            "width": 0.0,
            "height": 0.0
        }
    },
    "m_Slots": [
        {
            "m_Id": "a7e8017bc2fa45dd906250c0711cc045"
        }
    ],
    "synonyms": [],
    "m_Precision": 0,
    "m_PreviewExpanded": true,
    "m_DismissedVersion": 0,
    "m_PreviewMode": 0,
    "m_CustomColors": {
        "m_SerializableColors": []
    },
    "m_SerializedDescriptor": "VertexDescription.Tangent"
}

{
    "m_SGVersion": 1,
    "m_Type": "UnityEditor.ShaderGraph.Internal.Vector1ShaderProperty",
    "m_ObjectId": "d55b223800e14b0c8caf41a621cea745",
    "m_Guid": {
        "m_GuidSerialized": "c9a201f0-f08a-4d84-bfc7-e70035f01d2f"
    },
    "m_Name": "Scale",
    "m_DefaultRefNameVersion": 1,
    "m_RefNameGeneratedByDisplayName": "Scale",
    "m_DefaultReferenceName": "_Scale",
    "m_OverrideReferenceName": "",
    "m_GeneratePropertyBlock": true,
    "m_UseCustomSlotLabel": false,
    "m_CustomSlotLabel": "",
    "m_DismissedVersion": 0,
    "m_Precision": 0,
    "overrideHLSLDeclaration": false,
    "hlslDeclarationOverride": 0,
    "m_Hidden": false,
    "m_Value": 0.0,
    "m_FloatType": 0,
    "m_RangeValues": {
        "x": 0.0,
        "y": 1.0
    }
}

