%YAML 1.1
%TAG !u! tag:unity3d.com,2011:
--- !u!114 &-5568170496572906586
MonoBehaviour:
  m_ObjectHideFlags: 11
  m_CorrespondingSourceObject: {fileID: 0}
  m_PrefabInstance: {fileID: 0}
  m_PrefabAsset: {fileID: 0}
  m_GameObject: {fileID: 0}
  m_Enabled: 1
  m_EditorHideFlags: 0
  m_Script: {fileID: 11500000, guid: d0353a89b1f911e48b9e16bdc9f2e058, type: 3}
  m_Name: 
  m_EditorClassIdentifier: 
  version: 7
--- !u!21 &2100000
Material:
  serializedVersion: 8
  m_ObjectHideFlags: 0
  m_CorrespondingSourceObject: {fileID: 0}
  m_PrefabInstance: {fileID: 0}
  m_PrefabAsset: {fileID: 0}
  m_Name: Light
  m_Shader: {fileID: -6465566751694194690, guid: 11fdea7b5399e5b4fb3f54363cda2757,
    type: 3}
  m_Parent: {fileID: 0}
  m_ModifiedSerializedProperties: 0
  m_ValidKeywords:
  - _SURFACE_TYPE_TRANSPARENT
  m_InvalidKeywords: []
  m_LightmapFlags: 4
  m_EnableInstancingVariants: 0
  m_DoubleSidedGI: 0
  m_CustomRenderQueue: -1
  stringTagMap:
    RenderType: Transparent
  disabledShaderPasses:
  - DepthOnly
  - SHADOWCASTER
  m_LockedProperties: 
  m_SavedProperties:
    serializedVersion: 3
    m_TexEnvs:
    - _Texture_Red_Emissiv_Green_Opacity:
        m_Texture: {fileID: 10300, guid: 0000000000000000f000000000000000, type: 0}
        m_Scale: {x: 1, y: 1}
        m_Offset: {x: 0, y: 0}
    - unity_Lightmaps:
        m_Texture: {fileID: 0}
        m_Scale: {x: 1, y: 1}
        m_Offset: {x: 0, y: 0}
    - unity_LightmapsInd:
        m_Texture: {fileID: 0}
        m_Scale: {x: 1, y: 1}
        m_Offset: {x: 0, y: 0}
    - unity_ShadowMasks:
        m_Texture: {fileID: 0}
        m_Scale: {x: 1, y: 1}
        m_Offset: {x: 0, y: 0}
    m_Ints: []
    m_Floats:
    - _0_Opacity_Fade_1_Disolve: 0
    - _AlphaClip: 0
    - _AlphaToMask: 0
    - _Blend: 0
    - _CastShadows: 0
    - _Cull: 2
    - _Depth_Fade_Distance: 0
    - _DstBlend: 10
    - _Emissiv_Driven_By_Vertex_Color_Alpha_1: 1
    - _Emissiv_Intensity: 1
    - _QueueControl: 0
    - _QueueOffset: 0
    - _SrcBlend: 5
    - _Surface: 1
    - _ZTest: 4
    - _ZWrite: 0
    - _ZWriteControl: 0
    m_Colors: []
  m_BuildTextureStacks: []
