%YAML 1.1
%TAG !u! tag:unity3d.com,2011:
--- !u!1045 &1
EditorBuildSettings:
  m_ObjectHideFlags: 0
  serializedVersion: 2
  m_Scenes:
  - enabled: 1
    path: Assets/Scenes/MainMenu.unity
    guid: 7a5f5f48c0770544eb9db3bda276047a
  - enabled: 1
    path: Assets/Scenes/Features/CubeMovement.unity
    guid: 9fc0d4010bbf28b4594072e72b8655ab
  - enabled: 1
    path: Assets/Scenes/Invitation.unity
    guid: 9fef37b1024fa1c4eabc3da75c07cb11
  m_configObjects: {}
